[gd_scene load_steps=4 format=2]

[ext_resource path="res://field.png" type="Texture" id=1]
[ext_resource path="res://lane.png" type="Texture" id=2]
[ext_resource path="res://water.png" type="Texture" id=3]

[node name="Tiles" type="Node2D"]

[node name="field" type="Sprite" parent="." index="0"]

position = Vector2( 667, 295 )
texture = ExtResource( 1 )

[node name="lane" type="Sprite" parent="." index="1"]

position = Vector2( 667, 295 )
texture = ExtResource( 2 )

[node name="water" type="Sprite" parent="." index="2"]

position = Vector2( 667, 295 )
texture = ExtResource( 3 )


